/******************************************
 ********** Fuel Element Geometry **********
 ******************************************/`
%include fuelElementMaterials.txt
%include materials.txt
%include FuelChannel.txt

% ===================== defining surfaces ==================================
% ----- surf <id> <type> <param 1> <param 2>x0 , y0 , r, r0
surf outerElement hexyprism 0 0 0.95758 0 132.08


% ===================== defining cells ====== cell <name> <u0> <mat> <surf 1> <surf 2>
% ========== universes 10-20 as well as 100-200 are reserved for fuel types
% ----------------------------------------- type 45 (u#=1) ----------------- 
lat 101 2 0 0 7 7 0.38274

100 100 100 100 100 100 100
100 100 100 10  10  10  100
100 100 10  10  10  10  100
100 10  10  10  10  10  100
100 10  10  10  10  100 100
100 10  10  10  100 100 100
100 100 100 100 100 100 100

cell fuelElement45 F fill 101 -outerElement
cell outside45 F outside outerElement
% ----------------------------------------- type 39 (u#=2) ----------------- 
lat 111 2 0 0 7 7 0.38274

110 110 110 110 110 110 110
110 110 110 11  11  11  110
110 110 11  11  11  11  110
110 11  11  11  11  11  110
110 11  11  11  11  110 110
110 11  11  11  110 110 110
110 110 110 110 110 110 110

cell fuelElement39 9 fill 111 -outerElement
cell outside39 9 outside outerElement
% ----------------------------------------- type 34 (u#=3)----------------- 
lat 121 2 0 0 7 7 0.38274

120 120 120 120 120 120 120
120 120 120 12  12  12  120
120 120 12  12  12  12  120
120 12  12  12  12  12  120
120 12  12  12  12  120 120
120 12  12  12  120 120 120
120 120 120 120 120 120 120

cell fuelElement34 8 fill 121 -outerElement
cell outside34 8 outside outerElement
% ----------------------------------------- type 30 (u#=4) ----------------- 
lat 131 2 0 0 7 7 0.38274

130 130 130 130 130 130 130
130 130 130 13  13  13  130
130 130 13  13  13  13  130
130 13  13  13  13  13  130
130 13  13  13  13  130 130
130 13  13  13  130 130 130
130 130 130 130 130 130 130

cell fuelElement30 7 fill 131 -outerElement
cell outside30 7 outside outerElement
% ----------------------------------------- type 26 (u#=5) ----------------- 
lat 141 2 0 0 7 7 0.38274

140 140 140 140 140 140 140
140 140 140 14  14  14  140
140 140 14  14  14  14  140
140 14  14  14  14  14  140
140 14  14  14  14  140 140
140 14  14  14  140 140 140
140 140 140 140 140 140 140

cell fuelElement26 6 fill 141 -outerElement
cell outside26 6 outside outerElement
% ----------------------------------------- type 22 (u#=6) ----------------- 
lat 151 2 0 0 7 7 0.38274

150 150 150 150 150 150 150
150 150 150 15  15  15  150
150 150 15  15  15  15  150
150 15  15  15  15  15  150
150 15  15  15  15  150 150
150 15  15  15  150 150 150
150 150 150 150 150 150 150

cell fuelElement22 5 fill 151 -outerElement
cell outside22 5 outside outerElement
% ----------------------------------------- type 19 (u#=7) ----------------- 
lat 161 2 0 0 7 7 0.38274

160 160 160 160 160 160 160
160 160 160 16  16  16  160
160 160 16  16  16  16  160
160 16  16  16  16  16  160
160 16  16  16  16  160 160
160 16  16  16  160 160 160
160 160 160 160 160 160 160

cell fuelElement19 4 fill 161 -outerElement
cell outside19 4 outside outerElement
% ----------------------------------------- type 17 (u#=8) ----------------- 
lat 171 2 0 0 7 7 0.38274

170 170 170 170 170 170 170
170 170 170 17  17  17  170
170 170 17  17  17  17  170
170 17  17  17  17  17  170
170 17  17  17  17  170 170
170 17  17  17  170 170 170
170 170 170 170 170 170 170

cell fuelElement17 3 fill 171 -outerElement
cell outside17 3 outside outerElement
% ----------------------------------------- type 15 (u#=9) ----------------- 
lat 181 2 0 0 7 7 0.38274

180 180 180 180 180 180 180
180 180 180 18  18  18  180
180 180 18  18  18  18  180
180 18  18  18  18  18  180
180 18  18  18  18  180 180
180 18  18  18  180 180 180
180 180 180 180 180 180 180

cell fuelElement15 2 fill 181 -outerElement
cell outside15 2 outside outerElement
% ----------------------------------------- type 13 (u#=11) ----------------- 
lat 191 2 0 0 7 7 0.38274

190 190 190 190 190 190 190
190 190 190 19  19  19  190
190 190 19  19  19  19  190
190 19  19  19  19  19  190
190 19  19  19  19  190 190
190 19  19  19  190 190 190
190 190 190 190 190 190 190

cell fuelElement13 1 fill 191 -outerElement
cell outside13 1 outside outerElement




% --- for plotting
% --- need to set U#=0 for all for it to plot
%set pop 10000 100 50
%plot 3 5000 5000 1 -1.5 1.5 -1.5 1.5 % xy plot
%plot 2 5000 5000 0 -1 1 -1 133 % xz plot