
mat type45   -2.18
6000.03c    -0.79357798
92235.15c   -0.19197
92238.15c   -0.014449

mat type39   -2.122
6000.03c    -0.8152686
92235.15c   -0.17180
92238.15c   -0.012931196


mat type34   -2.014
6000.03c    -0.8353452
92235.15c   -0.1531289
92238.15c   -0.0115258


mat type30   -1.973
6000.03c    -0.853478
92235.15c   -0.1362654
92238.15c   -0.010256


mat type26   -1.937
6000.03c    -0.87022
92235.15c   -0.120694
92238.15c   -0.009084


mat type22   -1.906
6000.03c    -0.885363
92235.15c   -0.10661
92238.15c   -0.0080245

mat type19   -1.879
6000.03c    -0.898701
92235.15c   -0.09420779
92238.15c   -0.0070909

mat type17   -1.856
6000.03c    -0.9105263
92235.15c   -0.0832105
92238.15c   -0.0062631

mat type15   -1.836
6000.03c    -0.9211927
92235.15c   -0.07329073
92238.15c   -0.0055165

mat type13   -1.817
6000.03c    -0.931108
92235.15c   -0.0640688
92238.15c   -0.00482238
